// Jest Snapshot v1, https://goo.gl/fbAQLP

exports[`Pagination renders correctly 1`] = `
<div
  className="pagination"
>
  <ul
    className="pages"
  >
    <li
      className="active"
      onClick={[Function]}
    >
      1
    </li>
    <li
      className=""
      onClick={[Function]}
    >
      2
    </li>
    <li
      className=""
      onClick={[Function]}
    >
      3
    </li>
    <li
      className=""
      onClick={[Function]}
    >
      4
    </li>
  </ul>
  <span
    className="total-items"
  >
    500
     items
  </span>
  <span
    className="total-pages"
  >
    5
     pages
  </span>
</div>
`;
