// Jest Snapshot v1, https://goo.gl/fbAQLP

exports[`ResultListContainer ResultListContainer renders correctly when no results 1`] = `
<div
  className="result-list-container"
>
  <span
    className="result-list-empty"
  >
    No results
  </span>
</div>
`;

exports[`ResultListContainer When items are passed ResultListContainer renders correctly with results 1`] = `
<div
  className="result-list-container"
>
  <div
    className="pagination"
  >
    <ul
      className="pages"
    >
      <li
        className="active"
        onClick={[Function]}
      >
        1
      </li>
    </ul>
    <span
      className="total-items"
    >
      3
       items
    </span>
    <span
      className="total-pages"
    >
      1
       pages
    </span>
  </div>
  <ul
    className="result-list"
  >
    <li
      className="result-list-item"
    >
      <div
        className="item-contents item-type-movie"
      >
        <span
          className="movie-vote"
        >
          7.3
        </span>
        <img
          src="http://image.tmdb.org/t/p/w92//fg6fhyKg3vbdGtnf9Hq27Q5gS3r.jpg"
        />
        <h3
          className="movie-title"
        >
          The Boondock Saints
        </h3>
        <p
          className="movie-release-date"
        >
          1999-01-22
        </p>
        <p
          className="movie-overview"
        >
          With a God-inspired moral obligation to act against evil, twin brothers Conner and Murphy set out to rid Boston of criminals. However, rather than working within the system, these Irish Americans decide to take swift retribution into their own hands.
        </p>
      </div>
    </li>
    <li
      className="result-list-item"
    >
      <div
        className="item-contents item-type-movie"
      >
        <span
          className="movie-vote"
        >
          5.8
        </span>
        <img
          src="http://image.tmdb.org/t/p/w92//hjU3caMd9O3h21e5kzJeUOAoy7h.jpg"
        />
        <h3
          className="movie-title"
        >
          The Boondock Saints II: All Saints Day
        </h3>
        <p
          className="movie-release-date"
        >
          2009-11-24
        </p>
        <p
          className="movie-overview"
        >
          Skillfully framed by an unknown enemy for the murder of a priest, wanted vigilante MacManus brothers Murphy and Connor must come out of hiding on a sheep farm in Ireland to fight for justice in Boston.
        </p>
      </div>
    </li>
    <li
      className="result-list-item"
    >
      <div
        className="item-contents item-type-movie"
      >
        <span
          className="movie-vote"
        >
          0
        </span>
        <img
          src="http://image.tmdb.org/t/p/w92/null"
        />
        <h3
          className="movie-title"
        >
          The Boondock Saints III
        </h3>
        <p
          className="movie-release-date"
        >
          
        </p>
        <p
          className="movie-overview"
        >
          The third installment of the Boondock Saints film series.
        </p>
      </div>
    </li>
  </ul>
</div>
`;
